{
    "server": {
        "host":"mixhamster.herokuapp.com",
        "port": 443,
        "key": "keys/server.key",
        "cert": "keys/server.cert"
    },
    "token": {
        "secret": "tokenencoreplussecret",
        "expiresIn": "1d"
    }
}